{
  "project_info": {
    "project_number": "927127142617",
    "project_id": "tasksapp-b2795",
    "storage_bucket": "tasksapp-b2795.appspot.com"
  },
  "client": [
    {
      "client_info": {
        "mobilesdk_app_id": "1:927127142617:android:dc9e2740aafbbb9ef17ec8",
        "android_client_info": {
          "package_name": "com.example.tasks_app"
        }
      },
      "oauth_client": [
        {
          "client_id": "927127142617-pl2qk64nh7vnjcses14lfg90uq7ra61t.apps.googleusercontent.com",
          "client_type": 3
        }
      ],
      "api_key": [
        {
          "current_key": "AIzaSyAbqXXZR2MpsBCbLeXVu7beGJax_VegyUE"
        }
      ],
      "services": {
        "appinvite_service": {
          "other_platform_oauth_client": [
            {
              "client_id": "927127142617-pl2qk64nh7vnjcses14lfg90uq7ra61t.apps.googleusercontent.com",
              "client_type": 3
            }
          ]
        }
      }
    }
  ],
  "configuration_version": "1"
}